Predicting Sovereign Credit Ratings with Economic, Social, and Political Factor
…
## # A tibble: 30 x 2
##    model test_mse
##    <int>    <dbl>
##  1    29     2.08
##  2    24     2.09
##  3     9     2.11
##  4     4     2.12
##  5    26     2.42
##  6     6     2.42
##  7     1     2.61
##  8    21     2.61
##  9     3     2.96
## 10    23     2.96
## # ... with 20 more rows
…
## # A tibble: 1 x 2
##   lambda_min lambda_1se
##        <dbl>      <dbl>
## 1       3.81       4.65

With the training-error minimizing lambda, the test MSE is equal to 3.81344; with more regularizing lambda, the test MSE is 4.64653. Compared with the cross-validation test MSE from the OLS regressions, LASSO definitely did better (LASSO regression lowers MSE more than OLS regressions). However, when compared with fixed-effects models, LASSO actually did worse than some fixed-effects models! Impressively, taking into country-specific effects along with theory-based variables outperformed the mechanical, automated variable seletion algorithm.

Finally, I take a look at which variables LASSO zeroed out (and did not).

## # A tibble: 52 x 3
##    variable            min_lambda_coef lambda_1se_coef
##    <fct>                         <dbl>           <dbl>
##  1 (Intercept)                 263.           204.    
##  2 year                         -0.126         -0.0976
##  3 vocHME                       -0.955         -0.312 
##  4 vocLME                       -0.430         NA     
##  5 vocSME                       -0.184         NA     
##  6 regionCentral/Latin          -1.45          -1.44  
##  7 regionEasternEurope          NA             NA     
##  8 regionMiddleEast             -1.35          -0.743 
##  9 regionNorth America          -0.841         NA     
## 10 regionOceania                 0.516          0.242 
## # ... with 42 more rows
…
